1,PA0
2,PA1
3,PA2
4,PA3
5,PA4
6,PA5
7,PA6
8,IOVDD_0
9,PB0
10,PB1
11,PB2
12,PB3
13,PB4
14,PB5
15,PB6
16,VSS
17,IOVDD_1
18,PC0
19,PC1
20,PC2
21,PC3
22,PC4
23,PC5
24,PB7
25,PB8
26,PA7
27,PA8
28,PA9
29,PA10
30,PA11
31,IOVDD_2
32,VSS
33,PA12
34,PA13
35,PA14
36,RESETn
37,PB9
38,PB10
39,PB11
40,PB12
41,AVDD_1
42,PB13
43,PB14
44,IOVDD_3
45,AVDD_0
46,PD0
47,PD1
48,PD2
49,PD3
50,PD4
51,PD5
52,PD6
53,PD7
54,PD8
55,PC6
56,PC7
57,VDD_DREG
58,VSS
59,DECOUPLE
60,PE0
61,PE1
62,PE2
63,PE3
64,PE4
65,PE5
66,PE6
67,PE7
68,PC8
69,PC9
70,PC10
71,PC11
72,PC12
73,PC13
74,PC14
75,PC15
76,PF0
77,PF1
78,PF2
79,PF3
80,PF4
81,PF5
82,IOVDD_5
83,VSS
84,PF6
85,PF7
86,PF8
87,PF9
88,PD9
89,PD10
90,PD11
91,PD12
92,PE8
93,PE9
94,PE10
95,PE11
96,PE12
97,PE13
98,PE14
99,PE15
100,PA15
